Fake Accounts Instagram - 4 Formal Concept Analysis
…
datos_refinados <- datos

columnas_binarias = c("profile pic","name==username","external URL","fake","private")

for (columna in columnas_binarias) {
  datos_refinados[[columna]] <-  factor(datos_refinados[[columna]], labels = c("No", "Si"))
}

fc_datos <- FormalContext$new(datos_refinados)
fc_datos

FormalContext with 576 objects and 12 attributes.
# A tibble: 576 × 12
   `profile pic` `nums/length username` `fullname words` `nums/length fullname`
   <fct>                          <dbl>            <dbl>                  <dbl>
 1 Si                              0.27                0                      0
 2 Si                              0                   2                      0
 3 Si                              0.1                 2                      0
 4 Si                              0                   1                      0
 5 Si                              0                   2                      0
 6 Si                              0                   4                      0
 7 Si                              0                   2                      0
 8 Si                              0                   2                      0
 9 Si                              0                   0                      0
10 Si                              0                   2                      0
# ℹ 566 more rows
# ℹ 8 more variables: `name==username` <fct>, `description length` <dbl>,
#   `external URL` <fct>, private <fct>, `#posts` <dbl>, `#followers` <dbl>,
#   `#follows` <dbl>, fake <fct>
…
Como necesitamos que nuestro dataSet sea binario, necesitamos aplicarles tecniac como el escaldo para obtener el resultado deseado:

4.1.1 Escalado nominal

El escalado nominal se utiliza para atributos cuyos valores son excluyentes el uno del otro, como por ejemplo, los atributos que son Si y No.

fc_datos$scale("profile pic",type = "nominal",c("Si","No"))
fc_datos$scale("name==username",type = "nominal",c("Si","No"))
fc_datos$scale("fake",type = "nominal",c("Si","No"))
fc_datos$scale("private",type = "nominal",c("Si","No"))
fc_datos$scale("external URL",type = "nominal",c("Si","No"))
fc_datos

FormalContext with 576 objects and 17 attributes.
# A tibble: 576 × 17
   `profile pic = Si` `profile pic = No` `nums/length username` `fullname words`
                <dbl>              <dbl>                  <dbl>            <dbl>
 1                  1                  0                   0.27                0
 2                  1                  0                   0                   2
 3                  1                  0                   0.1                 2
 4                  1                  0                   0                   1
 5                  1                  0                   0                   2
 6                  1                  0                   0                   4
 7                  1                  0                   0                   2
 8                  1                  0                   0                   2
 9                  1                  0                   0                   0
10                  1                  0                   0                   2
# ℹ 566 more rows
# ℹ 13 more variables: `nums/length fullname` <dbl>,
#   `name==username = Si` <dbl>, `name==username = No` <dbl>,
#   `description length` <dbl>, `external URL = Si` <dbl>,
#   `external URL = No` <dbl>, `private = Si` <dbl>, `private = No` <dbl>,
#   `#posts` <dbl>, `#followers` <dbl>, `#follows` <dbl>, `fake = Si` <dbl>,
#   `fake = No` <dbl>
…
